<svg width="153" height="21" viewBox="0 0 153 21" fill="none" xmlns="http://www.w3.org/2000/svg">
<path d="M0.287109 15.0371L2.39258 14.5586C3.24023 17.1016 5.07682 18.373 7.90234 18.373C9.37891 18.373 10.4909 18.0632 11.2383 17.4434C11.9857 16.8145 12.3594 15.9759 12.3594 14.9277C12.3594 14.1348 12.0723 13.4967 11.498 13.0137C10.9329 12.5306 10.2767 12.1979 9.5293 12.0156L5.79688 11.0859C4.83073 10.8398 4.03776 10.5436 3.41797 10.1973C2.80729 9.8418 2.28776 9.29948 1.85938 8.57031C1.43099 7.84115 1.2168 7.00716 1.2168 6.06836C1.2168 4.50977 1.80469 3.27018 2.98047 2.34961C4.15625 1.41992 5.66471 0.955078 7.50586 0.955078C10.8965 0.955078 13.125 2.49089 14.1914 5.5625L12.0723 6.19141C11.8262 5.09766 11.2474 4.27279 10.3359 3.7168C9.42448 3.15169 8.45378 2.86914 7.42383 2.86914C6.40299 2.86914 5.49154 3.13802 4.68945 3.67578C3.89648 4.21354 3.5 4.97461 3.5 5.95898C3.5 7.33529 4.51172 8.26497 6.53516 8.74805L10.0215 9.58203C13.2116 10.3477 14.8066 12.0658 14.8066 14.7363C14.8066 16.3496 14.2051 17.694 13.002 18.7695C11.8079 19.8359 10.1217 20.3691 7.94336 20.3691C4.07878 20.3691 1.52669 18.5918 0.287109 15.0371ZM20.7572 20H18.4193V1.33789H25.0365C27.1055 1.33789 28.6322 1.90299 29.6166 3.0332C30.6009 4.1543 31.0931 5.4349 31.0931 6.875C31.0931 8.47917 30.5554 9.80534 29.4798 10.8535C28.4134 11.9017 27.0143 12.4258 25.2826 12.4258H20.7572V20ZM20.7572 10.4844H25.0502C26.153 10.4844 27.0417 10.1562 27.7162 9.5C28.3907 8.83464 28.7279 7.95964 28.7279 6.875C28.7279 5.94531 28.4271 5.11589 27.8255 4.38672C27.224 3.65755 26.3535 3.29297 25.2142 3.29297H20.7572V10.4844ZM46.2995 17.9492V20H34.2273V1.33789H46.0398V3.38867H36.5652V9.32227H44.0847V11.2227H36.5652V17.9492H46.2995ZM62.2716 20H59.879L57.9923 14.5449H51.088L49.42 20H47.4649L53.5216 1.33789H56.1876L62.2716 20ZM57.5001 12.7949L54.629 3.82617L51.7305 12.7949H57.5001ZM79.6108 20H77.0541L71.476 9.70508L67.1967 15.0234V20H64.8588V1.33789H67.1967V12.166L75.6323 1.33789H78.1616L73.103 7.87305L79.6108 20Z" fill="#333333"/>
<path d="M92.7527 13.5195L95.8699 13.8613C95.6694 15.7298 94.9448 17.2702 93.6961 18.4824C92.4565 19.6855 90.825 20.2871 88.8016 20.2871C87.0971 20.2871 85.7117 19.8587 84.6453 19.002C83.588 18.1452 82.7723 16.9831 82.198 15.5156C81.6238 14.0482 81.3367 12.4303 81.3367 10.6621C81.3367 7.81836 82.0112 5.50781 83.3602 3.73047C84.7091 1.94401 86.5639 1.05078 88.9246 1.05078C90.7749 1.05078 92.3152 1.62044 93.5457 2.75977C94.7762 3.89909 95.5509 5.5306 95.8699 7.6543L92.7527 7.98242C92.1785 5.16602 90.9116 3.75781 88.952 3.75781C87.6941 3.75781 86.7143 4.3457 86.0125 5.52148C85.3198 6.68815 84.9734 8.38346 84.9734 10.6074C84.9734 12.8678 85.3471 14.5768 86.0945 15.7344C86.8419 16.8828 87.8309 17.457 89.0613 17.457C90.0457 17.457 90.8842 17.0697 91.577 16.2949C92.2697 15.5202 92.6616 14.5951 92.7527 13.5195ZM113.319 20H109.723L108.233 15.5566H101.055L99.5919 20H96.7209L102.914 1.33789H107.057L113.319 20ZM107.33 12.8633L104.61 4.53711L101.889 12.8633H107.33ZM134.021 20H130.589V3.66211L125.421 20H123.658L118.462 3.66211V20H115.714V1.33789H120.978L124.888 13.3555L128.73 1.33789H134.021V20ZM141.64 20H138.276V1.33789H145.919C148.097 1.33789 149.71 1.88932 150.759 2.99219C151.816 4.08594 152.345 5.38021 152.345 6.875C152.345 8.57943 151.775 9.96029 150.636 11.0176C149.496 12.0749 148.052 12.6035 146.302 12.6035H141.64V20ZM141.64 9.71875H145.618C146.657 9.71875 147.45 9.46354 147.997 8.95312C148.544 8.44271 148.817 7.76367 148.817 6.91602C148.817 6.15039 148.562 5.49414 148.052 4.94727C147.55 4.40039 146.639 4.12695 145.317 4.12695H141.64V9.71875Z" fill="#1E68E3"/>
</svg>